{
  "images" : [
    {
      "idiom" : "universal",
      "filename" : "4b04944b9d48a2b7dbb2231c031935de.jpg",
      "scale" : "1x"
    },
    {
      "idiom" : "universal",
      "scale" : "2x"
    },
    {
      "idiom" : "universal",
      "scale" : "3x"
    }
  ],
  "info" : {
    "version" : 1,
    "author" : "xcode"
  }
}